5 Slice/sigmoid5slices_tb.vcd
$date
	Thu Dec 04 11:44:11 2025
$end
$version
	Icarus Verilog
$end
$timescale
	1s
$end
$scope module sigmoid5slices_tb $end
$var wire 16 ! y1_out [15:0] $end
$var wire 16 " y0_out [15:0] $end
$var wire 1 # valid_out $end
$var reg 1 $ clk $end
$var reg 1 % rst_n $end
$var reg 1 & valid_in $end
$var reg 16 ' x0_in [15:0] $end
$var reg 16 ( x1_in [15:0] $end
$var integer 32 ) i [31:0] $end
$var integer 32 * out_cnt [31:0] $end
$scope function to_fixed $end
$var real 1 + val $end
$upscope $end
$scope function to_real $end
$var reg 16 , val [15:0] $end
$upscope $end
$scope module uut $end
$var wire 1 $ clk $end
$var wire 1 % rst_n $end
$var wire 1 & valid_in $end
$var wire 16 - x0_in [15:0] $end
$var wire 16 . x1_in [15:0] $end
$var parameter 16 / BP_N2 $end
$var parameter 16 0 BP_N4 $end
$var parameter 16 1 BP_N6 $end
$var parameter 16 2 BP_P2 $end
$var parameter 16 3 BP_P4 $end
$var parameter 16 4 BP_P6 $end
$var parameter 16 5 C_SEG1 $end
$var parameter 16 6 C_SEG2 $end
$var parameter 16 7 C_SEG3 $end
$var parameter 16 8 C_SEG4 $end
$var parameter 16 9 C_SEG5 $end
$var parameter 16 : M_INNER $end
$var parameter 16 ; M_MID $end
$var parameter 16 < M_OUTER $end
$var parameter 16 = SAT_HIGH $end
$var parameter 16 > SAT_LOW $end
$var reg 32 ? mult_res0 [31:0] $end
$var reg 32 @ mult_res1 [31:0] $end
$var reg 16 A s1_c0 [15:0] $end
$var reg 16 B s1_c1 [15:0] $end
$var reg 16 C s1_m0 [15:0] $end
$var reg 16 D s1_m1 [15:0] $end
$var reg 1 E s1_sat_high0 $end
$var reg 1 F s1_sat_high1 $end
$var reg 1 G s1_sat_low0 $end
$var reg 1 H s1_sat_low1 $end
$var reg 1 I s1_valid $end
$var reg 16 J s1_x0 [15:0] $end
$var reg 16 K s1_x1 [15:0] $end
$var reg 1 L s2_sat_high0 $end
$var reg 1 M s2_sat_high1 $end
$var reg 1 N s2_sat_low0 $end
$var reg 1 O s2_sat_low1 $end
$var reg 1 P s2_valid $end
$var reg 16 Q s2_y0 [15:0] $end
$var reg 16 R s2_y1 [15:0] $end
$var reg 1 # valid_out $end
$var reg 16 S y0_out [15:0] $end
$var reg 16 T y1_out [15:0] $end
$upscope $end
$upscope $end
$enddefinitions $end
$comment Show the parameter values. $end
$dumpall
b101 >
b11111111011 =
b111100 <
b11111010 ;
b110000110 :
b11011100010 9
b10110111000 8
b10000000000 7
b1001001000 6
b100011110 5
b11000000000000 4
b10000000000000 3
b1000000000000 2
b1101000000000000 1
b1110000000000000 0
b1111000000000000 /
$end
#0
$dumpvars
b0 T
b0 S
b0 R
b0 Q
0P
0O
0N
0M
0L
b0 K
b0 J
0I
0H
0G
0F
0E
b0 D
b0 C
b0 B
b0 A
bx @
bx ?
b0 .
b0 -
bx ,
r0 +
b0 *
bx )
b0 (
b0 '
0&
0%
0$
0#
b0 "
b0 !
$end
#5
1$
#10
0$
#15
1$
#20
0$
b0 )
1%
#25
1H
1G
b1011010000011011 K
b1011000000000000 J
1I
b0 @
b0 ?
b10 )
b1011010000011011 (
b1011010000011011 .
b1011000000000000 '
b1011000000000000 -
r-9.487179490000001 +
1&
1$
#30
0$
#35
b1011110001001111 K
b1011100000110101 J
1O
1N
1P
b100 )
b1011110001001111 (
b1011110001001111 .
b1011100000110101 '
b1011100000110101 -
r-8.46153846 +
1$
#40
0$
#45
b101 !
b101 T
b101 "
b101 S
1#
b1100010010000100 K
b1100000001101010 J
b110 )
b1100010010000100 (
b1100010010000100 .
b1100000001101010 '
b1100000001101010 -
r-7.43589744 +
1$
#50
0$
#55
b1100110010111000 K
b1100100010011110 J
b1000 )
b1100110010111000 (
b1100110010111000 .
b1100100010011110 '
b1100100010011110 -
r-6.41025641 +
b10 *
b101 ,
1$
#60
0$
#65
b100011110 B
b111100 D
0H
b100011110 A
b111100 C
0G
b1101010011101101 K
b1101000011010011 J
b100 *
b1010 )
b1101010011101101 (
b1101010011101101 .
b1101000011010011 '
b1101000011010011 -
r-5.38461538 +
1$
#70
0$
#75
b1101110100100001 K
b1101100100000111 J
b1111111111011010 R
b1111111110111100 Q
0O
0N
b11111111111101011110011110001100 @
b11111111111101001111000101110100 ?
b1100 )
b1101110100100001 (
b1101110100100001 .
b1101100100000111 '
b1101100100000111 -
r-4.35897436 +
b110 *
1$
#80
0$
#85
b1111111111011010 !
b1111111111011010 T
b1111111110111100 "
b1111111110111100 S
b11000 R
b1111111111111001 Q
b1001001000 B
b11111010 D
b1001001000 A
b11111010 C
b1110010101010110 K
b1110000100111100 J
b11111111111101111101001110111100 @
b11111111111101101101110110100100 ?
b1000 *
b1110 )
b1110010101010110 (
b1110010101010110 .
b1110000100111100 '
b1110000100111100 -
r-3.33333333 +
1$
#90
0$
#95
b1110110110001010 K
b1110100101110000 J
b1111111100000110 R
b1111111010000110 Q
b11000 !
b11000 T
b1111111111111001 "
b1111111111111001 S
b11111111111001011111010111111100 @
b11111111111000011111010010011000 ?
b10000 )
b1110110110001010 (
b1110110110001010 .
b1110100101110000 '
b1110100101110000 -
r-2.30769231 +
b1010 *
b1111111111011010 ,
1$
#100
0$
#105
b1111111100000110 !
b1111111100000110 T
b1111111010000110 "
b1111111010000110 S
b111 R
b1111111110000110 Q
b10000000000 B
b110000110 D
b10000000000 A
b110000110 C
b1111010110111111 K
b1111000110100101 J
b11111111111011011111100011000100 @
b11111111111010011111011101100000 ?
b1100 *
b11000 ,
b10010 )
b1111010110111111 (
b1111010110111111 .
b1111000110100101 '
b1111000110100101 -
r-1.28205128 +
1$
#110
0$
#115
b1111110111110011 K
b1111100111011001 J
b1000001100 R
b101000100 Q
b111 !
b111 T
b1111111110000110 "
b1111111110000110 S
b11111111111100000110000011111010 @
b11111111111010100010000101011110 ?
b10100 )
b1111110111110011 (
b1111110111110011 .
b1111100111011001 '
b1111100111011001 -
r-0.25641026 +
b1110 *
b1111111100000110 ,
1$
#120
0$
#125
b1000001100 !
b1000001100 T
b101000100 "
b101000100 S
b1110011100 R
b1011010100 Q
b11000100111 K
b1000001101 J
b11111111111111001110000000110010 @
b11111111111101101010000010010110 ?
b10000 *
b111 ,
b10110 )
b11000100111 (
b11000100111 .
b1000001101 '
b1000001101 -
r0.76923077 +
1$
#130
0$
#135
b111001011011 K
b101001000001 J
b10100101011 R
b10001100011 Q
b1110011100 !
b1110011100 T
b1011010100 "
b1011010100 S
b10010101111101101010 @
b110001111111001110 ?
b11000 )
b111001011011 (
b111001011011 .
b101001000001 '
b101001000001 -
r1.79487179 +
b10010 *
b1000001100 ,
1$
#140
0$
#145
b10100101011 !
b10100101011 T
b10001100011 "
b10001100011 S
b11010111011 R
b10111110011 Q
b10110111000 B
b11111010 D
b10110111000 A
b11111010 C
b1011010010000 K
b1001001110110 J
b101011101111010100010 @
b11111001111100000110 ?
b10100 *
b1110011100 ,
b11010 )
b1011010010000 (
b1011010010000 .
b1001001110110 '
b1001001110110 -
r2.82051282 +
1$
#150
0$
#155
b1111011000100 K
b1101010101010 J
b100001111001 R
b11111111000 Q
b11010111011 !
b11010111011 T
b10111110011 "
b10111110011 S
b101100000100010100000 @
b100100000011100111100 ?
b11100 )
b1111011000100 (
b1111011000100 .
b1101010101010 '
b1101010101010 -
r3.84615385 +
b10110 *
b10100101011 ,
1$
#160
0$
#165
b100001111001 !
b100001111001 T
b11111111000 "
b11111111000 S
b100101111001 R
b100011111001 Q
b11011100010 B
b111100 D
b11011100010 A
b111100 C
b10011011111001 K
b10001011011111 J
b111100000101101101000 @
b110100000101000000100 ?
b11000 *
b11010111011 ,
b11110 )
b10011011111001 (
b10011011111001 .
b10001011011111 '
b10001011011111 -
r4.87179487 +
1$
#170
0$
#175
b10111100101101 K
b10101100010011 J
b100000000110 R
b11111100111 Q
b100101111001 !
b100101111001 T
b100011111001 "
b100011111001 S
b10010010001001011100 @
b10000010110001000100 ?
b100000 )
b10111100101101 (
b10111100101101 .
b10101100010011 '
b10101100010011 -
r5.8974359 +
b11010 *
b100001111001 ,
1$
#180
0$
#185
b100000000110 !
b100000000110 T
b11111100111 "
b11111100111 S
b100001000011 R
b100000100101 Q
b0 B
b0 D
1F
b0 A
b0 C
1E
b11011101100010 K
b11001101001000 J
b10110000111010001100 @
b10100001100001110100 ?
b11100 *
b100101111001 ,
b100010 )
b11011101100010 (
b11011101100010 .
b11001101001000 '
b11001101001000 -
r6.92307692 +
1$
#190
0$
#195
b11111110010110 K
b11101101111100 J
b0 R
b0 Q
1M
1L
b100001000011 !
b100001000011 T
b100000100101 "
b100000100101 S
b0 @
b0 ?
b100100 )
b11111110010110 (
b11111110010110 .
b11101101111100 '
b11101101111100 -
r7.94871795 +
b11110 *
b100000000110 ,
1$
#200
0$
#205
b11111111011 !
b11111111011 T
b11111111011 "
b11111111011 S
b100011111001011 K
b100001110110001 J
b100000 *
b100001000011 ,
b100110 )
b100011111001011 (
b100011111001011 .
b100001110110001 '
b100001110110001 -
r8.974358970000001 +
1$
#210
0$
#215
b101000000000000 K
b100101111100101 J
b101000 )
b101000000000000 (
b101000000000000 .
b100101111100101 '
b100101111100101 -
r10 +
b100010 *
b11111111011 ,
1$
#220
0$
#225
0I
b100100 *
0&
1$
#230
0$
#235
0P
b100110 *
1$
#240
0$
#245
0#
b101000 *
1$
