5 Slice/tanh5slices_tb.vcd
$date
	Thu Dec 04 11:57:28 2025
$end
$version
	Icarus Verilog
$end
$timescale
	1s
$end
$scope module tanh5slices_tb $end
$var wire 16 ! y1_out [15:0] $end
$var wire 16 " y0_out [15:0] $end
$var wire 1 # valid_out $end
$var reg 1 $ clk $end
$var reg 1 % rst_n $end
$var reg 1 & valid_in $end
$var reg 16 ' x0_in [15:0] $end
$var reg 16 ( x1_in [15:0] $end
$var integer 32 ) i [31:0] $end
$var integer 32 * out_cnt [31:0] $end
$scope function to_fixed $end
$var real 1 + val $end
$upscope $end
$scope function to_real $end
$var reg 16 , val [15:0] $end
$upscope $end
$scope module uut $end
$var wire 1 $ clk $end
$var wire 1 % rst_n $end
$var wire 1 & valid_in $end
$var wire 16 - x0_in [15:0] $end
$var wire 16 . x1_in [15:0] $end
$var parameter 16 / BP_N05 $end
$var parameter 16 0 BP_N2 $end
$var parameter 16 1 BP_N3 $end
$var parameter 16 2 BP_P05 $end
$var parameter 16 3 BP_P2 $end
$var parameter 16 4 BP_P3 $end
$var parameter 16 5 C_SEG2 $end
$var parameter 16 6 C_SEG3 $end
$var parameter 16 7 C_SEG4 $end
$var parameter 16 8 C_SEG5 $end
$var parameter 16 9 C_SEG6 $end
$var parameter 16 : M_INNER $end
$var parameter 16 ; M_MID $end
$var parameter 16 < M_OUTER $end
$var parameter 16 = SAT_HIGH $end
$var parameter 16 > SAT_LOW $end
$var reg 32 ? mult_res0 [31:0] $end
$var reg 32 @ mult_res1 [31:0] $end
$var reg 16 A s1_c0 [15:0] $end
$var reg 16 B s1_c1 [15:0] $end
$var reg 16 C s1_m0 [15:0] $end
$var reg 16 D s1_m1 [15:0] $end
$var reg 1 E s1_sat_high0 $end
$var reg 1 F s1_sat_high1 $end
$var reg 1 G s1_sat_low0 $end
$var reg 1 H s1_sat_low1 $end
$var reg 1 I s1_valid $end
$var reg 16 J s1_x0 [15:0] $end
$var reg 16 K s1_x1 [15:0] $end
$var reg 1 L s2_sat_high0 $end
$var reg 1 M s2_sat_high1 $end
$var reg 1 N s2_sat_low0 $end
$var reg 1 O s2_sat_low1 $end
$var reg 1 P s2_valid $end
$var reg 16 Q s2_y0 [15:0] $end
$var reg 16 R s2_y1 [15:0] $end
$var reg 1 # valid_out $end
$var reg 16 S y0_out [15:0] $end
$var reg 16 T y1_out [15:0] $end
$upscope $end
$upscope $end
$enddefinitions $end
$comment Show the parameter values. $end
$dumpall
b1111100000001010 >
b11111110110 =
b1100100 <
b1011001101 ;
b11000010100 :
b11010111000 9
b1010001111 8
b0 7
b1111110101110001 6
b1111100101001000 5
b1100000000000 4
b1000000000000 3
b10000000000 2
b1110100000000000 1
b1111000000000000 0
b1111110000000000 /
$end
#0
$dumpvars
b0 T
b0 S
b0 R
b0 Q
0P
0O
0N
0M
0L
b0 K
b0 J
0I
0H
0G
0F
0E
b0 D
b0 C
b0 B
b0 A
bx @
bx ?
b0 .
b0 -
bx ,
r0 +
b0 *
bx )
b0 (
b0 '
0&
0%
0$
0#
b0 "
b0 !
$end
#5
1$
#10
0$
#15
1$
#20
0$
b0 )
1%
#25
1H
1G
b1101110000110110 K
b1101100000000000 J
1I
b0 @
b0 ?
b10 )
b1101110000110110 (
b1101110000110110 .
b1101100000000000 '
b1101100000000000 -
r-4.47368421 +
1&
1$
#30
0$
#35
b1110010010100010 K
b1110000001101100 J
1O
1N
1P
b100 )
b1110010010100010 (
b1110010010100010 .
b1110000001101100 '
b1110000001101100 -
r-3.42105263 +
1$
#40
0$
#45
b1111100000001010 !
b1111100000001010 T
b1111100000001010 "
b1111100000001010 S
1#
b1111100101001000 B
b1100100 D
0H
b1111100101001000 A
b1100100 C
0G
b1110110100001110 K
b1110100011011000 J
b110 )
b1110110100001110 (
b1110110100001110 .
b1110100011011000 '
b1110100011011000 -
r-2.36842105 +
1$
#50
0$
#55
b1111110101110001 B
b1011001101 D
b1111110101110001 A
b1011001101 C
b1111010101111010 K
b1111000101000100 J
b1111100001011011 R
b1111100000100110 Q
0O
0N
b11111111111110001001100101111000 @
b11111111111101101111010001100000 ?
b1000 )
b1111010101111010 (
b1111010101111010 .
b1111000101000100 '
b1111000101000100 -
r-1.31578947 +
b10 *
b1111100000001010 ,
1$
#60
0$
#65
b1111100001011011 !
b1111100001011011 T
b1111100000100110 "
b1111100000100110 S
b1111100111000001 R
b1111100001001000 Q
b0 B
b11000010100 D
b1111110111100110 K
b1111100110110000 J
b11111111111000101000011010110010 @
b11111111110101101011101101110100 ?
b100 *
b1010 )
b1111110111100110 (
b1111110111100110 .
b1111100110110000 '
b1111100110110000 -
r-0.26315789 +
1$
#70
0$
#75
b1010001111 B
b1011001101 D
b0 A
b11000010100 C
b11001010000 K
b1000011010 J
b1111111001100111 R
b1111101100111011 Q
b1111100111000001 !
b1111100111000001 T
b1111100001001000 "
b1111100001001000 S
b11111111111100110011100111111000 @
b11111111111011100101000111110000 ?
b1100 )
b11001010000 (
b11001010000 .
b1000011010 '
b1000011010 -
r0.78947368 +
b110 *
b1111100001011011 ,
1$
#80
0$
#85
b1111111001100111 !
b1111111001100111 T
b1111101100111011 "
b1111101100111011 S
b10011000100 R
b110011000 Q
b1010001111 A
b1011001101 C
b111010111100 K
b101010000110 J
b100011010111000010000 @
b11001100011000001000 ?
b1000 *
b1111100111000001 ,
b1110 )
b111010111100 (
b111010111100 .
b101010000110 '
b101010000110 -
r1.84210526 +
1$
#90
0$
#95
b11010111000 B
b1100100 D
b11010111000 A
b1100100 C
b1011100101000 K
b1001011110010 J
b11110110111 R
b11000111110 Q
b10011000100 !
b10011000100 T
b110011000 "
b110011000 S
b1010010100010010001100 @
b111010111100101001110 ?
b10000 )
b1011100101000 (
b1011100101000 .
b1001011110010 '
b1001011110010 -
r2.89473684 +
b1010 *
b1111111001100111 ,
1$
#100
0$
#105
b11110110111 !
b11110110111 T
b11000111110 "
b11000111110 S
b11111011001 R
b11110100100 Q
b0 B
b0 D
1F
b0 A
b0 C
1E
b1111110010100 K
b1101101011110 J
b10010000101110100000 @
b1110110011010001000 ?
b1100 *
b10011000100 ,
b10010 )
b1111110010100 (
b1111110010100 .
b1101101011110 '
b1101101011110 -
r3.94736842 +
1$
#110
0$
#115
b10100000000000 K
b10001111001010 J
b0 R
b0 Q
1M
1L
b11111011001 !
b11111011001 T
b11110100100 "
b11110100100 S
b0 @
b0 ?
b10100 )
b10100000000000 (
b10100000000000 .
b10001111001010 '
b10001111001010 -
r5 +
b1110 *
b11110110111 ,
1$
#120
0$
#125
b11111110110 !
b11111110110 T
b11111110110 "
b11111110110 S
0I
b10000 *
b11111011001 ,
0&
1$
#130
0$
#135
0P
b10010 *
b11111110110 ,
1$
#140
0$
#145
0#
b10100 *
1$
