9-slices/sigmoid9slices_tb.vcd
$date
	Thu Dec  4 16:17:41 2025
$end
$version
	Icarus Verilog
$end
$timescale
	1ps
$end
$scope module sigmoid9slices_tb $end
$var wire 16 ! y1_out [15:0] $end
$var wire 16 " y0_out [15:0] $end
$var wire 1 # valid_out $end
$var reg 1 $ clk $end
$var reg 1 % rst_n $end
$var reg 1 & valid_in $end
$var reg 16 ' x0_in [15:0] $end
$var reg 16 ( x1_in [15:0] $end
$var integer 32 ) i [31:0] $end
$var integer 32 * out_cnt [31:0] $end
$scope function to_fixed $end
$var real 1 + val $end
$upscope $end
$scope function to_real $end
$var reg 16 , val [15:0] $end
$upscope $end
$scope module uut $end
$var wire 1 $ clk $end
$var wire 1 % rst_n $end
$var wire 1 & valid_in $end
$var wire 16 - x0_in [15:0] $end
$var wire 16 . x1_in [15:0] $end
$var reg 32 / mult_res0 [31:0] $end
$var reg 32 0 mult_res1 [31:0] $end
$var reg 16 1 s1_c0 [15:0] $end
$var reg 16 2 s1_c1 [15:0] $end
$var reg 16 3 s1_m0 [15:0] $end
$var reg 16 4 s1_m1 [15:0] $end
$var reg 1 5 s1_sat_high0 $end
$var reg 1 6 s1_sat_high1 $end
$var reg 1 7 s1_sat_low0 $end
$var reg 1 8 s1_sat_low1 $end
$var reg 1 9 s1_valid $end
$var reg 16 : s1_x0 [15:0] $end
$var reg 16 ; s1_x1 [15:0] $end
$var reg 1 < s2_sat_high0 $end
$var reg 1 = s2_sat_high1 $end
$var reg 1 > s2_sat_low0 $end
$var reg 1 ? s2_sat_low1 $end
$var reg 1 @ s2_valid $end
$var reg 16 A s2_y0 [15:0] $end
$var reg 16 B s2_y1 [15:0] $end
$var reg 1 # valid_out $end
$var reg 16 C y0_out [15:0] $end
$var reg 16 D y1_out [15:0] $end
$upscope $end
$upscope $end
$enddefinitions $end
#0
$dumpvars
b0 D
b0 C
b0 B
b0 A
0@
0?
0>
0=
0<
b0 ;
b0 :
09
08
07
06
05
b0 4
b0 3
b0 2
b0 1
bx 0
bx /
b0 .
b0 -
bx ,
r0 +
b0 *
bx )
b0 (
b0 '
0&
0%
0$
0#
b0 "
b0 !
$end
#5000
1$
#10000
0$
#15000
1$
#20000
0$
b0 )
1%
#25000
18
17
b1011010000011011 ;
b1011000000000000 :
19
b0 0
b0 /
b10 )
b1011010000011011 (
b1011010000011011 .
b1011000000000000 '
b1011000000000000 -
r-9.487179490000001 +
1&
1$
#30000
0$
#35000
b1011110001001111 ;
b1011100000110101 :
1?
1>
1@
b100 )
b1011110001001111 (
b1011110001001111 .
b1011100000110101 '
b1011100000110101 -
r-8.46153846 +
1$
#40000
0$
#45000
b101 !
b101 D
b101 "
b101 C
1#
b1100010010000100 ;
b1100000001101010 :
b110 )
b1100010010000100 (
b1100010010000100 .
b1100000001101010 '
b1100000001101010 -
r-7.43589744 +
1$
#50000
0$
#55000
b1100110010111000 ;
b1100100010011110 :
b1000 )
b1100110010111000 (
b1100110010111000 .
b1100100010011110 '
b1100100010011110 -
r-6.41025641 +
b10 *
b101 ,
1$
#60000
0$
#65000
b1000100 2
b1011 4
08
b1000100 1
b1011 3
07
b1101010011101101 ;
b1101000011010011 :
b100 *
b1010 )
b1101010011101101 (
b1101010011101101 .
b1101000011010011 '
b1101000011010011 -
r-5.38461538 +
1$
#70000
0$
#75000
b11000111 2
b100111 4
b1101110100100001 ;
b1101100100000111 :
b1000 B
b11 A
0?
0>
b11111111111111100010011000101111 0
b11111111111111011111100100010001 /
b1100 )
b1101110100100001 (
b1101110100100001 .
b1101100100000111 '
b1101100100000111 -
r-4.35897436 +
b110 *
1$
#80000
0$
#85000
b1000 !
b1000 D
b11 "
b11 C
b11101 B
b1110 A
b111111001 2
b10000010 4
b11000111 1
b100111 3
b1110010101010110 ;
b1110000100111100 :
b11111111111110101011000000000111 0
b11111111111111100101001101001101 /
b1000 *
b1110 )
b1110010101010110 (
b1110010101010110 .
b1110000100111100 '
b1110000100111100 -
r-3.33333333 +
1$
#90000
0$
#95000
b111111001 1
b10000010 3
b1110110110001010 ;
b1110100101110000 :
b1000111 B
b110001 A
b11101 !
b11101 D
b1110 "
b1110 C
b11111111111100100111010110101100 0
b11111111111110110101000000100100 /
b10000 )
b1110110110001010 (
b1110110110001010 .
b1110100101110000 '
b1110100101110000 -
r-2.30769231 +
b1010 *
b1000 ,
1$
#100000
0$
#105000
b1000111 !
b1000111 D
b110001 "
b110001 C
b11001101 B
b10001010 A
b1110011000 2
b101010010 4
b1110011000 1
b101010010 3
b1111010110111111 ;
b1111000110100101 :
b11111111111101101010000000010100 0
b11111111111101001000101011100000 /
b1100 *
b11101 ,
b10010 )
b1111010110111111 (
b1111010110111111 .
b1111000110100101 '
b1111000110100101 -
r-1.28205128 +
1$
#110000
0$
#115000
b10000000000 2
b111101110 4
b1111110111110011 ;
b1111100111011001 :
b111100110 B
b100111001 A
b11001101 !
b11001101 D
b10001010 "
b10001010 C
b11111111111100100111011000101110 0
b11111111111011010000101111011010 /
b10100 )
b1111110111110011 (
b1111110111110011 .
b1111100111011001 '
b1111100111011001 -
r-0.25641026 +
b1110 *
b1000111 ,
1$
#120000
0$
#125000
b111100110 !
b111100110 D
b100111001 "
b100111001 C
b1110000001 B
b1010010100 A
b10001101000 2
b101010010 4
b10000000000 1
b111101110 3
b11000100111 ;
b1000001101 :
b11111111111111000000101011101010 0
b11111111111101111110000010000010 /
b10000 *
b11001101 ,
b10110 )
b11000100111 (
b11000100111 .
b1000001101 '
b1000001101 -
r0.76923077 +
1$
#130000
0$
#135000
b10001101000 1
b101010010 3
b111001011011 ;
b101001000001 :
b10101101011 B
b10001111110 A
b1110000001 !
b1110000001 D
b1010010100 "
b1010010100 C
b10000001111101111110 0
b111111010100010110 /
b11000 )
b111001011011 (
b111001011011 .
b101001000001 '
b101001000001 -
r1.79487179 +
b10010 *
b111100110 ,
1$
#140000
0$
#145000
b10101101011 !
b10101101011 D
b10001111110 "
b10001111110 C
b11011000110 B
b11000011001 A
b11000000111 2
b10000010 4
b11000000111 1
b10000010 3
b1011010010000 ;
b1001001110110 :
b100101111010000100110 0
b11011000100111010010 /
b10100 *
b1110000001 ,
b11010 )
b1011010010000 (
b1011010010000 .
b1001001110110 '
b1001001110110 -
r2.82051282 +
1$
#150000
0$
#155000
b11100111001 2
b100111 4
b1111011000100 ;
b1101010101010 :
b11101110101 B
b11100110010 A
b11011000110 !
b11011000110 D
b11000011001 "
b11000011001 C
b10110111010100100000 0
b10010101111111101100 /
b11100 )
b1111011000100 (
b1111011000100 .
b1101010101010 '
b1101010101010 -
r3.84615385 +
b10110 *
b10101101011 ,
1$
#160000
0$
#165000
b11101110101 !
b11101110101 D
b11100110010 "
b11100110010 C
b11111001110 B
b11110111000 A
b11110111100 2
b1011 4
b11100111001 1
b100111 3
b10011011111001 ;
b10001011011111 :
b1001010111111011100 0
b11011000101001010100 /
b11000 *
b11011000110 ,
b11110 )
b10011011111001 (
b10011011111001 .
b10001011011111 '
b10001011011111 -
r4.87179487 +
1$
#170000
0$
#175000
b11110111100 1
b1011 3
b10111100101101 ;
b10101100010011 :
b11111110001 B
b11111100010 A
b11111001110 !
b11111001110 D
b11110111000 "
b11110111000 C
b11010110010110011 0
b1010100111111111001 /
b100000 )
b10111100101101 (
b10111100101101 .
b10101100010011 '
b10101100010011 -
r5.8974359 +
b11010 *
b11101110101 ,
1$
#180000
0$
#185000
b11111110001 !
b11111110001 D
b11111100010 "
b11111100010 C
b11111111100 B
b11111110111 A
b0 2
b0 4
16
b0 1
b0 3
15
b11011101100010 ;
b11001101001000 :
b100000011011101111 0
b11101100111010001 /
b11100 *
b11111001110 ,
b100010 )
b11011101100010 (
b11011101100010 .
b11001101001000 '
b11001101001000 -
r6.92307692 +
1$
#190000
0$
#195000
b11111110010110 ;
b11101101111100 :
b0 B
b0 A
1=
1<
b11111111100 !
b11111111100 D
b11111110111 "
b11111110111 C
b0 0
b0 /
b100100 )
b11111110010110 (
b11111110010110 .
b11101101111100 '
b11101101111100 -
r7.94871795 +
b11110 *
b11111110001 ,
1$
#200000
0$
#205000
b11111111011 !
b11111111011 D
b11111111011 "
b11111111011 C
b100011111001011 ;
b100001110110001 :
b100000 *
b11111111100 ,
b100110 )
b100011111001011 (
b100011111001011 .
b100001110110001 '
b100001110110001 -
r8.974358970000001 +
1$
#210000
0$
#215000
b101000000000000 ;
b100101111100101 :
b101000 )
b101000000000000 (
b101000000000000 .
b100101111100101 '
b100101111100101 -
r10 +
b100010 *
b11111111011 ,
1$
#220000
0$
#225000
09
b100100 *
0&
1$
#230000
0$
#235000
0@
b100110 *
1$
#240000
0$
#245000
0#
b101000 *
1$
