9-slices/tanh9slices_tb.vcd
$date
	Thu Dec  4 16:17:49 2025
$end
$version
	Icarus Verilog
$end
$timescale
	1ps
$end
$scope module tanh9slices_tb $end
$var wire 16 ! y1_out [15:0] $end
$var wire 16 " y0_out [15:0] $end
$var wire 1 # valid_out $end
$var reg 1 $ clk $end
$var reg 1 % rst_n $end
$var reg 1 & valid_in $end
$var reg 16 ' x0_in [15:0] $end
$var reg 16 ( x1_in [15:0] $end
$var integer 32 ) i [31:0] $end
$var integer 32 * out_cnt [31:0] $end
$scope function to_fixed $end
$var real 1 + val $end
$upscope $end
$scope function to_real $end
$var reg 16 , val [15:0] $end
$upscope $end
$scope module uut $end
$var wire 1 $ clk $end
$var wire 1 % rst_n $end
$var wire 1 & valid_in $end
$var wire 16 - x0_in [15:0] $end
$var wire 16 . x1_in [15:0] $end
$var reg 32 / mult_res0 [31:0] $end
$var reg 32 0 mult_res1 [31:0] $end
$var reg 16 1 s1_c0 [15:0] $end
$var reg 16 2 s1_c1 [15:0] $end
$var reg 16 3 s1_m0 [15:0] $end
$var reg 16 4 s1_m1 [15:0] $end
$var reg 1 5 s1_sat_high0 $end
$var reg 1 6 s1_sat_high1 $end
$var reg 1 7 s1_sat_low0 $end
$var reg 1 8 s1_sat_low1 $end
$var reg 1 9 s1_valid $end
$var reg 16 : s1_x0 [15:0] $end
$var reg 16 ; s1_x1 [15:0] $end
$var reg 1 < s2_sat_high0 $end
$var reg 1 = s2_sat_high1 $end
$var reg 1 > s2_sat_low0 $end
$var reg 1 ? s2_sat_low1 $end
$var reg 1 @ s2_valid $end
$var reg 16 A s2_y0 [15:0] $end
$var reg 16 B s2_y1 [15:0] $end
$var reg 1 # valid_out $end
$var reg 16 C y0_out [15:0] $end
$var reg 16 D y1_out [15:0] $end
$upscope $end
$upscope $end
$enddefinitions $end
#0
$dumpvars
b0 D
b0 C
b0 B
b0 A
0@
0?
0>
0=
0<
b0 ;
b0 :
09
08
07
06
05
b0 4
b0 3
b0 2
b0 1
bx 0
bx /
b0 .
b0 -
bx ,
r0 +
b0 *
bx )
b0 (
b0 '
0&
0%
0$
0#
b0 "
b0 !
$end
#5000
1$
#10000
0$
#15000
1$
#20000
0$
b0 )
1%
#25000
18
17
b1101110000110110 ;
b1101100000000000 :
19
b0 0
b0 /
b10 )
b1101110000110110 (
b1101110000110110 .
b1101100000000000 '
b1101100000000000 -
r-4.47368421 +
1&
1$
#30000
0$
#35000
b1110010010100010 ;
b1110000001101100 :
1?
1>
1@
b100 )
b1110010010100010 (
b1110010010100010 .
b1110000001101100 '
b1110000001101100 -
r-3.42105263 +
1$
#40000
0$
#45000
b1111100000001010 !
b1111100000001010 D
b1111100000001010 "
b1111100000001010 C
1#
b1111100010001000 2
b101010 4
08
b1111100010001000 1
b101010 3
07
b1110110100001110 ;
b1110100011011000 :
b110 )
b1110110100001110 (
b1110110100001110 .
b1110100011011000 '
b1110100011011000 -
r-2.36842105 +
1$
#50000
0$
#55000
b1111101111110001 2
b1000001001 4
b1111100110001110 1
b10011010 3
b1111010101111010 ;
b1111000101000100 :
b1111100000100100 B
b1111100000001110 A
0?
0>
b11111111111111001110010001001100 0
b11111111111111000011001101110000 /
b1000 )
b1111010101111010 (
b1111010101111010 .
b1111000101000100 '
b1111000101000100 -
r-1.31578947 +
b10 *
b1111100000001010 ,
1$
#60000
0$
#65000
b1111100000100100 !
b1111100000100100 D
b1111100000001110 "
b1111100000001110 C
b1111100101000011 B
b1111100001110010 A
b0 2
b11110110111 4
b1111111100110000 1
b10101001000 3
b1111110111100110 ;
b1111100110110000 :
b11111111111010101001010101001010 0
b11111111111101110010001011101000 /
b100 *
b1010 )
b1111110111100110 (
b1111110111100110 .
b1111100110110000 '
b1111100110110000 -
r-0.26315789 +
1$
#70000
0$
#75000
b11010000 2
b10101001000 4
b0 1
b11110110111 3
b11001010000 ;
b1000011010 :
b1111110111111001 B
b1111101100000101 A
b1111100101000011 !
b1111100101000011 D
b1111100001110010 "
b1111100001110010 C
b11111111111011111100100101101010 0
b11111111110111101010100110000000 /
b1100 )
b11001010000 (
b11001010000 .
b1000011010 '
b1000011010 -
r0.78947368 +
b110 *
b1111100000100100 ,
1$
#80000
0$
#85000
b1111110111111001 !
b1111110111111001 D
b1111101100000101 "
b1111101100000101 C
b10011111010 B
b1000000110 A
b11001110010 2
b10011010 4
b10000001111 1
b1000001001 3
b111010111100 ;
b101010000110 :
b1000010101011010000000 0
b100000011011010010110 /
b1000 *
b1111100101000011 ,
b1110 )
b111010111100 (
b111010111100 .
b101010000110 '
b101010000110 -
r1.84210526 +
1$
#90000
0$
#95000
b11101111000 2
b101010 4
b11101111000 1
b101010 3
b1011100101000 ;
b1001011110010 :
b11110001101 B
b11010111100 A
b10011111010 !
b10011111010 D
b1000000110 "
b1000000110 C
b10001101110100011000 0
b101010110101010110110 /
b10000 )
b1011100101000 (
b1011100101000 .
b1001011110010 '
b1001011110010 -
r2.89473684 +
b1010 *
b1111110111111001 ,
1$
#100000
0$
#105000
b11110001101 !
b11110001101 D
b11010111100 "
b11010111100 C
b11111110001 B
b11111011011 A
b0 2
b0 4
16
b0 1
b0 3
15
b1111110010100 ;
b1101101011110 :
b111100110010010000 0
b110001101110110100 /
b1100 *
b10011111010 ,
b10010 )
b1111110010100 (
b1111110010100 .
b1101101011110 '
b1101101011110 -
r3.94736842 +
1$
#110000
0$
#115000
b10100000000000 ;
b10001111001010 :
b0 B
b0 A
1=
1<
b11111110001 !
b11111110001 D
b11111011011 "
b11111011011 C
b0 0
b0 /
b10100 )
b10100000000000 (
b10100000000000 .
b10001111001010 '
b10001111001010 -
r5 +
b1110 *
b11110001101 ,
1$
#120000
0$
#125000
b11111110110 !
b11111110110 D
b11111110110 "
b11111110110 C
09
b10000 *
b11111110001 ,
0&
1$
#130000
0$
#135000
0@
b10010 *
b11111110110 ,
1$
#140000
0$
#145000
0#
b10100 *
1$
