3-Slices/sigmoid3slices_tb.vcd
$date
	Tue Dec  2 09:03:34 2025
$end
$version
	Icarus Verilog
$end
$timescale
	1ps
$end
$scope module sigmoid3slices_tb $end
$var wire 16 ! y1_out [15:0] $end
$var wire 16 " y0_out [15:0] $end
$var wire 1 # valid_out $end
$var reg 1 $ clk $end
$var reg 1 % rst_n $end
$var reg 1 & valid_in $end
$var reg 16 ' x0_in [15:0] $end
$var reg 16 ( x1_in [15:0] $end
$var integer 32 ) i [31:0] $end
$var integer 32 * out_cnt [31:0] $end
$scope function to_fixed $end
$var real 1 + val $end
$upscope $end
$scope function to_real $end
$var reg 16 , val [15:0] $end
$upscope $end
$scope module uut $end
$var wire 1 $ clk $end
$var wire 1 % rst_n $end
$var wire 1 & valid_in $end
$var wire 16 - x0_in [15:0] $end
$var wire 16 . x1_in [15:0] $end
$var parameter 16 / BP_N2 $end
$var parameter 16 0 BP_N6 $end
$var parameter 16 1 BP_P2 $end
$var parameter 16 2 BP_P6 $end
$var parameter 16 3 C_SEG1 $end
$var parameter 16 4 C_SEG2 $end
$var parameter 16 5 C_SEG3 $end
$var parameter 16 6 M_INNER $end
$var parameter 16 7 M_OUTER $end
$var parameter 16 8 SAT_HIGH $end
$var parameter 16 9 SAT_LOW $end
$var reg 32 : mult_res0 [31:0] $end
$var reg 32 ; mult_res1 [31:0] $end
$var reg 16 < s1_c0 [15:0] $end
$var reg 16 = s1_c1 [15:0] $end
$var reg 16 > s1_m0 [15:0] $end
$var reg 16 ? s1_m1 [15:0] $end
$var reg 1 @ s1_sat_high0 $end
$var reg 1 A s1_sat_high1 $end
$var reg 1 B s1_sat_low0 $end
$var reg 1 C s1_sat_low1 $end
$var reg 1 D s1_valid $end
$var reg 16 E s1_x0 [15:0] $end
$var reg 16 F s1_x1 [15:0] $end
$var reg 1 G s2_sat_high0 $end
$var reg 1 H s2_sat_high1 $end
$var reg 1 I s2_sat_low0 $end
$var reg 1 J s2_sat_low1 $end
$var reg 1 K s2_valid $end
$var reg 16 L s2_y0 [15:0] $end
$var reg 16 M s2_y1 [15:0] $end
$var reg 1 # valid_out $end
$var reg 16 N y0_out [15:0] $end
$var reg 16 O y1_out [15:0] $end
$upscope $end
$upscope $end
$enddefinitions $end
$comment Show the parameter values. $end
$dumpall
b101 9
b11111111011 8
b111100 7
b110000110 6
b11010010100 5
b10000000000 4
b101101100 3
b11000000000000 2
b1000000000000 1
b1101000000000000 0
b1111000000000000 /
$end
#0
$dumpvars
b0 O
b0 N
b0 M
b0 L
0K
0J
0I
0H
0G
b0 F
b0 E
0D
0C
0B
0A
0@
b0 ?
b0 >
b0 =
b0 <
bx ;
bx :
b0 .
b0 -
bx ,
r0 +
b0 *
bx )
b0 (
b0 '
0&
0%
0$
0#
b0 "
b0 !
$end
#5000
1$
#10000
0$
#15000
1$
#20000
0$
b0 )
1%
#25000
1C
1B
b1011010000011011 F
b1011000000000000 E
1D
b0 ;
b0 :
b10 )
b1011010000011011 (
b1011010000011011 .
b1011000000000000 '
b1011000000000000 -
r-9.487179490000001 +
1&
1$
#30000
0$
#35000
b1011110001001111 F
b1011100000110101 E
1J
1I
1K
b100 )
b1011110001001111 (
b1011110001001111 .
b1011100000110101 '
b1011100000110101 -
r-8.46153846 +
1$
#40000
0$
#45000
b101 !
b101 O
b101 "
b101 N
1#
b1100010010000100 F
b1100000001101010 E
b110 )
b1100010010000100 (
b1100010010000100 .
b1100000001101010 '
b1100000001101010 -
r-7.43589744 +
1$
#50000
0$
#55000
b1100110010111000 F
b1100100010011110 E
b1000 )
b1100110010111000 (
b1100110010111000 .
b1100100010011110 '
b1100100010011110 -
r-6.41025641 +
b10 *
b101 ,
1$
#60000
0$
#65000
b101101100 =
b111100 ?
0C
b101101100 <
b111100 >
0B
b1101010011101101 F
b1101000011010011 E
b100 *
b1010 )
b1101010011101101 (
b1101010011101101 .
b1101000011010011 '
b1101000011010011 -
r-5.38461538 +
1$
#70000
0$
#75000
b1101110100100001 F
b1101100100000111 E
b101000 M
b1010 L
0J
0I
b11111111111101011110011110001100 ;
b11111111111101001111000101110100 :
b1100 )
b1101110100100001 (
b1101110100100001 .
b1101100100000111 '
b1101100100000111 -
r-4.35897436 +
b110 *
1$
#80000
0$
#85000
b101000 !
b101000 O
b1010 "
b1010 N
b1100110 M
b1000111 L
b1110010101010110 F
b1110000100111100 E
b11111111111101111101001110111100 ;
b11111111111101101101110110100100 :
b1000 *
b1110 )
b1110010101010110 (
b1110010101010110 .
b1110000100111100 '
b1110000100111100 -
r-3.33333333 +
1$
#90000
0$
#95000
b1110110110001010 F
b1110100101110000 E
b10100100 M
b10000101 L
b1100110 !
b1100110 O
b1000111 "
b1000111 N
b11111111111110011100000000101000 ;
b11111111111110001100101000010000 :
b10000 )
b1110110110001010 (
b1110110110001010 .
b1110100101110000 '
b1110100101110000 -
r-2.30769231 +
b1010 *
b101000 ,
1$
#100000
0$
#105000
b10100100 !
b10100100 O
b10000101 "
b10000101 N
b11100001 M
b11000010 L
b10000000000 =
b110000110 ?
b10000000000 <
b110000110 >
b1111010110111111 F
b1111000110100101 E
b11111111111110111010110001011000 ;
b11111111111110101011011001000000 :
b1100 *
b1100110 ,
b10010 )
b1111010110111111 (
b1111010110111111 .
b1111000110100101 '
b1111000110100101 -
r-1.28205128 +
1$
#110000
0$
#115000
b1111110111110011 F
b1111100111011001 E
b1000001100 M
b101000100 L
b11100001 !
b11100001 O
b11000010 "
b11000010 N
b11111111111100000110000011111010 ;
b11111111111010100010000101011110 :
b10100 )
b1111110111110011 (
b1111110111110011 .
b1111100111011001 '
b1111100111011001 -
r-0.25641026 +
b1110 *
b10100100 ,
1$
#120000
0$
#125000
b1000001100 !
b1000001100 O
b101000100 "
b101000100 N
b1110011100 M
b1011010100 L
b11000100111 F
b1000001101 E
b11111111111111001110000000110010 ;
b11111111111101101010000010010110 :
b10000 *
b11100001 ,
b10110 )
b11000100111 (
b11000100111 .
b1000001101 '
b1000001101 -
r0.76923077 +
1$
#130000
0$
#135000
b111001011011 F
b101001000001 E
b10100101011 M
b10001100011 L
b1110011100 !
b1110011100 O
b1011010100 "
b1011010100 N
b10010101111101101010 ;
b110001111111001110 :
b11000 )
b111001011011 (
b111001011011 .
b101001000001 '
b101001000001 -
r1.79487179 +
b10010 *
b1000001100 ,
1$
#140000
0$
#145000
b10100101011 !
b10100101011 O
b10001100011 "
b10001100011 N
b11010111011 M
b10111110011 L
b11010010100 =
b111100 ?
b11010010100 <
b111100 >
b1011010010000 F
b1001001110110 E
b101011101111010100010 ;
b11111001111100000110 :
b10100 *
b1110011100 ,
b11010 )
b1011010010000 (
b1011010010000 .
b1001001110110 '
b1001001110110 -
r2.82051282 +
1$
#150000
0$
#155000
b1111011000100 F
b1101010101010 E
b11100111101 M
b11100011110 L
b11010111011 !
b11010111011 O
b10111110011 "
b10111110011 N
b1010100100111000000 ;
b1000101001110101000 :
b11100 )
b1111011000100 (
b1111011000100 .
b1101010101010 '
b1101010101010 -
r3.84615385 +
b10110 *
b10100101011 ,
1$
#160000
0$
#165000
b11100111101 !
b11100111101 O
b11100011110 "
b11100011110 N
b11101111010 M
b11101011011 L
b10011011111001 F
b10001011011111 E
b1110011010111110000 ;
b1100011111111011000 :
b11000 *
b11010111011 ,
b11110 )
b10011011111001 (
b10011011111001 .
b10001011011111 '
b10001011011111 -
r4.87179487 +
1$
#170000
0$
#175000
b10111100101101 F
b10101100010011 E
b11110111000 M
b11110011001 L
b11101111010 !
b11101111010 O
b11101011011 "
b11101011011 N
b10010010001001011100 ;
b10000010110001000100 :
b100000 )
b10111100101101 (
b10111100101101 .
b10101100010011 '
b10101100010011 -
r5.8974359 +
b11010 *
b11100111101 ,
1$
#180000
0$
#185000
b11110111000 !
b11110111000 O
b11110011001 "
b11110011001 N
b11111110101 M
b11111010111 L
b0 =
b0 ?
1A
b0 <
b0 >
1@
b11011101100010 F
b11001101001000 E
b10110000111010001100 ;
b10100001100001110100 :
b11100 *
b11101111010 ,
b100010 )
b11011101100010 (
b11011101100010 .
b11001101001000 '
b11001101001000 -
r6.92307692 +
1$
#190000
0$
#195000
b11111110010110 F
b11101101111100 E
b0 M
b0 L
1H
1G
b11111110101 !
b11111110101 O
b11111010111 "
b11111010111 N
b0 ;
b0 :
b100100 )
b11111110010110 (
b11111110010110 .
b11101101111100 '
b11101101111100 -
r7.94871795 +
b11110 *
b11110111000 ,
1$
#200000
0$
#205000
b11111111011 !
b11111111011 O
b11111111011 "
b11111111011 N
b100011111001011 F
b100001110110001 E
b100000 *
b11111110101 ,
b100110 )
b100011111001011 (
b100011111001011 .
b100001110110001 '
b100001110110001 -
r8.974358970000001 +
1$
#210000
0$
#215000
b101000000000000 F
b100101111100101 E
b101000 )
b101000000000000 (
b101000000000000 .
b100101111100101 '
b100101111100101 -
r10 +
b100010 *
b11111111011 ,
1$
#220000
0$
#225000
0D
b100100 *
0&
1$
#230000
0$
#235000
0K
b100110 *
1$
#240000
0$
#245000
0#
b101000 *
1$
