3-Slices/tanh3slices_tb.vcd
$date
	Tue Dec  2 09:23:05 2025
$end
$version
	Icarus Verilog
$end
$timescale
	1ps
$end
$scope module tanh3slices_tb $end
$var wire 16 ! y1_out [15:0] $end
$var wire 16 " y0_out [15:0] $end
$var wire 1 # valid_out $end
$var reg 1 $ clk $end
$var reg 1 % rst_n $end
$var reg 1 & valid_in $end
$var reg 16 ' x0_in [15:0] $end
$var reg 16 ( x1_in [15:0] $end
$var integer 32 ) i [31:0] $end
$var integer 32 * out_cnt [31:0] $end
$scope function to_fixed $end
$var real 1 + val $end
$upscope $end
$scope function to_real $end
$var reg 16 , val [15:0] $end
$upscope $end
$scope module uut $end
$var wire 1 $ clk $end
$var wire 1 % rst_n $end
$var wire 1 & valid_in $end
$var wire 16 - x0_in [15:0] $end
$var wire 16 . x1_in [15:0] $end
$var parameter 16 / BP_N1 $end
$var parameter 16 0 BP_N3 $end
$var parameter 16 1 BP_P1 $end
$var parameter 16 2 BP_P3 $end
$var parameter 16 3 C_SEG1 $end
$var parameter 16 4 C_SEG2 $end
$var parameter 16 5 C_SEG3 $end
$var parameter 16 6 M_INNER $end
$var parameter 16 7 M_OUTER $end
$var parameter 16 8 SAT_HIGH $end
$var parameter 16 9 SAT_LOW $end
$var reg 32 : mult_res0 [31:0] $end
$var reg 32 ; mult_res1 [31:0] $end
$var reg 16 < s1_c0 [15:0] $end
$var reg 16 = s1_c1 [15:0] $end
$var reg 16 > s1_m0 [15:0] $end
$var reg 16 ? s1_m1 [15:0] $end
$var reg 1 @ s1_sat_high0 $end
$var reg 1 A s1_sat_high1 $end
$var reg 1 B s1_sat_low0 $end
$var reg 1 C s1_sat_low1 $end
$var reg 1 D s1_valid $end
$var reg 16 E s1_x0 [15:0] $end
$var reg 16 F s1_x1 [15:0] $end
$var reg 1 G s2_sat_high0 $end
$var reg 1 H s2_sat_high1 $end
$var reg 1 I s2_sat_low0 $end
$var reg 1 J s2_sat_low1 $end
$var reg 1 K s2_valid $end
$var reg 16 L s2_y0 [15:0] $end
$var reg 16 M s2_y1 [15:0] $end
$var reg 1 # valid_out $end
$var reg 16 N y0_out [15:0] $end
$var reg 16 O y1_out [15:0] $end
$upscope $end
$upscope $end
$enddefinitions $end
$comment Show the parameter values. $end
$dumpall
b1111100000001010 9
b11111110110 8
b11101111 7
b11000011000 6
b10100101001 5
b0 4
b1111101011010111 3
b1100000000000 2
b100000000000 1
b1110100000000000 0
b1111100000000000 /
$end
#0
$dumpvars
b0 O
b0 N
b0 M
b0 L
0K
0J
0I
0H
0G
b0 F
b0 E
0D
0C
0B
0A
0@
b0 ?
b0 >
b0 =
b0 <
bx ;
bx :
b0 .
b0 -
bx ,
r0 +
b0 *
bx )
b0 (
b0 '
0&
0%
0$
0#
b0 "
b0 !
$end
#5000
1$
#10000
0$
#15000
1$
#20000
0$
b0 )
1%
#25000
1C
1B
b1101110000110110 F
b1101100000000000 E
1D
b0 ;
b0 :
b10 )
b1101110000110110 (
b1101110000110110 .
b1101100000000000 '
b1101100000000000 -
r-4.47368421 +
1&
1$
#30000
0$
#35000
b1110010010100010 F
b1110000001101100 E
1J
1I
1K
b100 )
b1110010010100010 (
b1110010010100010 .
b1110000001101100 '
b1110000001101100 -
r-3.42105263 +
1$
#40000
0$
#45000
b1111100000001010 !
b1111100000001010 O
b1111100000001010 "
b1111100000001010 N
1#
b1111101011010111 =
b11101111 ?
0C
b1111101011010111 <
b11101111 >
0B
b1110110100001110 F
b1110100011011000 E
b110 )
b1110110100001110 (
b1110110100001110 .
b1110100011011000 '
b1110100011011000 -
r-2.36842105 +
1$
#50000
0$
#55000
b1111010101111010 F
b1111000101000100 E
b1111100010100001 M
b1111100000100011 L
0J
0I
b11111111111011100101000000010010 ;
b11111111111010100110000110101000 :
b1000 )
b1111010101111010 (
b1111010101111010 .
b1111000101000100 '
b1111000101000100 -
r-1.31578947 +
b10 *
b1111100000001010 ,
1$
#60000
0$
#65000
b1111100010100001 !
b1111100010100001 O
b1111100000100011 "
b1111100000100011 N
b1111100110011100 M
b1111100100011110 L
b0 =
b11000011000 ?
b0 <
b11000011000 >
b1111110111100110 F
b1111100110110000 E
b11111111111101100010110011100110 ;
b11111111111100100011111001111100 :
b100 *
b1010 )
b1111110111100110 (
b1111110111100110 .
b1111100110110000 '
b1111100110110000 -
r-0.26315789 +
1$
#70000
0$
#75000
b11001010000 F
b1000011010 E
b1111111001100110 M
b1111101100110001 L
b1111100110011100 !
b1111100110011100 O
b1111100100011110 "
b1111100100011110 N
b11111111111100110011000110010000 ;
b11111111110110011000100010000000 :
b1100 )
b11001010000 (
b11001010000 .
b1000011010 '
b1000011010 -
r0.78947368 +
b110 *
b1111100010100001 ,
1$
#80000
0$
#85000
b1111111001100110 !
b1111111001100110 O
b1111101100110001 "
b1111101100110001 N
b10011001110 M
b110011001 L
b10100101001 =
b11101111 ?
b10100101001 <
b11101111 >
b111010111100 F
b101010000110 E
b1001100111011110000000 ;
b11001100111001110000 :
b1000 *
b1111100110011100 ,
b1110 )
b111010111100 (
b111010111100 .
b101010000110 '
b101010000110 -
r1.84210526 +
1$
#90000
0$
#95000
b1011100101000 F
b1001011110010 E
b11011100001 M
b11001100011 L
b10011001110 !
b10011001110 O
b110011001 "
b110011001 N
b11011100000110000100 ;
b10011101001100011010 :
b10000 )
b1011100101000 (
b1011100101000 .
b1001011110010 '
b1001011110010 -
r2.89473684 +
b1010 *
b1111111001100110 ,
1$
#100000
0$
#105000
b11011100001 !
b11011100001 O
b11001100011 "
b11001100011 N
b11111011100 M
b11101011110 L
b0 =
b0 ?
1A
b0 <
b0 >
1@
b1111110010100 F
b1101101011110 E
b101011001111001011000 ;
b100011010111111101110 :
b1100 *
b10011001110 ,
b10010 )
b1111110010100 (
b1111110010100 .
b1101101011110 '
b1101101011110 -
r3.94736842 +
1$
#110000
0$
#115000
b10100000000000 F
b10001111001010 E
b0 M
b0 L
1H
1G
b11111011100 !
b11111011100 O
b11101011110 "
b11101011110 N
b0 ;
b0 :
b10100 )
b10100000000000 (
b10100000000000 .
b10001111001010 '
b10001111001010 -
r5 +
b1110 *
b11011100001 ,
1$
#120000
0$
#125000
b11111110110 !
b11111110110 O
b11111110110 "
b11111110110 N
0D
b10000 *
b11111011100 ,
0&
1$
#130000
0$
#135000
0K
b10010 *
b11111110110 ,
1$
#140000
0$
#145000
0#
b10100 *
1$
