7-slices/sigmoid7slices_tb.vcd
$date
	Fri Dec 05 07:14:45 2025
$end
$version
	Icarus Verilog
$end
$timescale
	1ps
$end
$scope module sigmoid7slices_tb $end
$var wire 16 ! y1_out [15:0] $end
$var wire 16 " y0_out [15:0] $end
$var wire 1 # valid_out $end
$var reg 1 $ clk $end
$var reg 1 % rst_n $end
$var reg 1 & valid_in $end
$var reg 16 ' x0_in [15:0] $end
$var reg 16 ( x1_in [15:0] $end
$var integer 32 ) i [31:0] $end
$var integer 32 * out_cnt [31:0] $end
$scope function to_fixed $end
$var real 1 + val $end
$upscope $end
$scope function to_real $end
$var reg 16 , val [15:0] $end
$upscope $end
$scope module uut $end
$var wire 1 $ clk $end
$var wire 1 % rst_n $end
$var wire 1 & valid_in $end
$var wire 16 - x0_in [15:0] $end
$var wire 16 . x1_in [15:0] $end
$var parameter 16 / BP_N1 $end
$var parameter 16 0 BP_N2 $end
$var parameter 16 1 BP_N4 $end
$var parameter 16 2 BP_N6 $end
$var parameter 16 3 BP_P1 $end
$var parameter 16 4 BP_P2 $end
$var parameter 16 5 BP_P4 $end
$var parameter 16 6 BP_P6 $end
$var parameter 16 7 C_SEG1 $end
$var parameter 16 8 C_SEG2 $end
$var parameter 16 9 C_SEG3 $end
$var parameter 16 : C_SEG4 $end
$var parameter 16 ; C_SEG5 $end
$var parameter 16 < C_SEG6 $end
$var parameter 16 = C_SEG7 $end
$var parameter 16 > M_CENTER $end
$var parameter 16 ? M_MID $end
$var parameter 16 @ M_OUTER $end
$var parameter 16 A M_TAIL $end
$var parameter 16 B SAT_HIGH $end
$var parameter 16 C SAT_LOW $end
$var reg 32 D mult_res0 [31:0] $end
$var reg 32 E mult_res1 [31:0] $end
$var reg 16 F s1_c0 [15:0] $end
$var reg 16 G s1_c1 [15:0] $end
$var reg 16 H s1_m0 [15:0] $end
$var reg 16 I s1_m1 [15:0] $end
$var reg 1 J s1_sat_high0 $end
$var reg 1 K s1_sat_high1 $end
$var reg 1 L s1_sat_low0 $end
$var reg 1 M s1_sat_low1 $end
$var reg 1 N s1_valid $end
$var reg 16 O s1_x0 [15:0] $end
$var reg 16 P s1_x1 [15:0] $end
$var reg 1 Q s2_sat_high0 $end
$var reg 1 R s2_sat_high1 $end
$var reg 1 S s2_sat_low0 $end
$var reg 1 T s2_sat_low1 $end
$var reg 1 U s2_valid $end
$var reg 16 V s2_y0 [15:0] $end
$var reg 16 W s2_y1 [15:0] $end
$var reg 1 # valid_out $end
$var reg 16 X y0_out [15:0] $end
$var reg 16 Y y1_out [15:0] $end
$upscope $end
$upscope $end
$enddefinitions $end
$comment Show the parameter values. $end
$dumpall
b101 C
b11111111011 B
b10000 A
b1101000 @
b100110011 ?
b111011001 >
b11110011100 =
b11000111101 <
b10010100111 ;
b10000000000 :
b1101011001 9
b111000011 8
b1100100 7
b11000000000000 6
b10000000000000 5
b1000000000000 4
b100000000000 3
b1101000000000000 2
b1110000000000000 1
b1111000000000000 0
b1111100000000000 /
$end
#0
$dumpvars
b0 Y
b0 X
b0 W
b0 V
0U
0T
0S
0R
0Q
b0 P
b0 O
0N
0M
0L
0K
0J
b0 I
b0 H
b0 G
b0 F
bx E
bx D
b0 .
b0 -
bx ,
r0 +
b0 *
bx )
b0 (
b0 '
0&
0%
0$
0#
b0 "
b0 !
$end
#5000
1$
#10000
0$
#15000
1$
#20000
0$
b0 )
1%
#25000
1M
1L
b1011000110011110 P
b1011000000000000 O
1N
b0 E
b0 D
b10 )
b1011000110011110 (
b1011000110011110 .
b1011000000000000 '
b1011000000000000 -
r-9.7979798 +
1&
1$
#30000
0$
#35000
b1011010011011010 P
b1011001100111100 O
1T
1S
1U
b100 )
b1011010011011010 (
b1011010011011010 .
b1011001100111100 '
b1011001100111100 -
r-9.39393939 +
1$
#40000
0$
#45000
b101 !
b101 Y
b101 "
b101 X
1#
b1011100000010101 P
b1011011001110111 O
b110 )
b1011100000010101 (
b1011100000010101 .
b1011011001110111 '
b1011011001110111 -
r-8.98989899 +
1$
#50000
0$
#55000
b1011101101010001 P
b1011100110110011 O
b1000 )
b1011101101010001 (
b1011101101010001 .
b1011100110110011 '
b1011100110110011 -
r-8.585858590000001 +
b10 *
b101 ,
1$
#60000
0$
#65000
b1011111010001100 P
b1011110011101110 O
b100 *
b1010 )
b1011111010001100 (
b1011111010001100 .
b1011110011101110 '
b1011110011101110 -
r-8.18181818 +
1$
#70000
0$
#75000
b1100000111001000 P
b1100000000101010 O
b1100 )
b1100000111001000 (
b1100000111001000 .
b1100000000101010 '
b1100000000101010 -
r-7.77777778 +
b110 *
1$
#80000
0$
#85000
b1100010100000011 P
b1100001101100101 O
b1000 *
b1110 )
b1100010100000011 (
b1100010100000011 .
b1100001101100101 '
b1100001101100101 -
r-7.37373737 +
1$
#90000
0$
#95000
b1100100000111111 P
b1100011010100001 O
b10000 )
b1100100000111111 (
b1100100000111111 .
b1100011010100001 '
b1100011010100001 -
r-6.96969697 +
b1010 *
1$
#100000
0$
#105000
b1100101101111010 P
b1100100111011100 O
b1100 *
b10010 )
b1100101101111010 (
b1100101101111010 .
b1100100111011100 '
b1100100111011100 -
r-6.56565657 +
1$
#110000
0$
#115000
b1100111010110110 P
b1100110100011000 O
b10100 )
b1100111010110110 (
b1100111010110110 .
b1100110100011000 '
b1100110100011000 -
r-6.16161616 +
b1110 *
1$
#120000
0$
#125000
b1100100 G
b10000 I
0M
b1100100 F
b10000 H
0L
b1101000111110001 P
b1101000001010011 O
b10000 *
b10110 )
b1101000111110001 (
b1101000111110001 .
b1101000001010011 '
b1101000001010011 -
r-5.75757576 +
1$
#130000
0$
#135000
b1101010100101100 P
b1101001110001111 O
b111 W
b100 V
0T
0S
b11111111111111010001111100010000 E
b11111111111111010000010100110000 D
b11000 )
b1101010100101100 (
b1101010100101100 .
b1101001110001111 '
b1101001110001111 -
r-5.35353535 +
b10010 *
1$
#140000
0$
#145000
b111 !
b111 Y
b100 "
b100 X
b1110 W
b1011 V
b1101100001101000 P
b1101011011001010 O
b11111111111111010101001011000000 E
b11111111111111010011100011110000 D
b10100 *
b11010 )
b1101100001101000 (
b1101100001101000 .
b1101011011001010 '
b1101011011001010 -
r-4.94949495 +
1$
#150000
0$
#155000
b1101101110100011 P
b1101101000000110 O
b10100 W
b10001 V
b1110 !
b1110 Y
b1011 "
b1011 X
b11111111111111011000011010000000 E
b11111111111111010110110010100000 D
b11100 )
b1101101110100011 (
b1101101110100011 .
b1101101000000110 '
b1101101000000110 -
r-4.54545455 +
b10110 *
b111 ,
1$
#160000
0$
#165000
b10100 !
b10100 Y
b10001 "
b10001 X
b11011 W
b11000 V
b1101111011011111 P
b1101110101000001 O
b11111111111111011011101000110000 E
b11111111111111011010000001100000 D
b11000 *
b1110 ,
b11110 )
b1101111011011111 (
b1101111011011111 .
b1101110101000001 '
b1101110101000001 -
r-4.14141414 +
1$
#170000
0$
#175000
b111000011 G
b1101000 I
b111000011 F
b1101000 H
b1110001000011010 P
b1110000001111101 O
b100001 W
b11110 V
b11011 !
b11011 Y
b11000 "
b11000 X
b11111111111111011110110111110000 E
b11111111111111011101010000010000 D
b100000 )
b1110001000011010 (
b1110001000011010 .
b1110000001111101 '
b1110000001111101 -
r-3.73737374 +
b11010 *
b10100 ,
1$
#180000
0$
#185000
b100001 !
b100001 Y
b11110 "
b11110 X
b111110 W
b101001 V
b1110010101010110 P
b1110001110111000 O
b11111111111100111101101010010000 E
b11111111111100110011001011001000 D
b11100 *
b11011 ,
b100010 )
b1110010101010110 (
b1110010101010110 .
b1110001110111000 '
b1110001110111000 -
r-3.33333333 +
1$
#190000
0$
#195000
b1110100010010001 P
b1110011011110100 O
b1101000 W
b1010011 V
b111110 !
b111110 Y
b101001 "
b101001 X
b11111111111101010010101011110000 E
b11111111111101001000001011000000 D
b100100 )
b1110100010010001 (
b1110100010010001 .
b1110011011110100 '
b1110011011110100 -
r-2.92929293 +
b11110 *
b100001 ,
1$
#200000
0$
#205000
b1101000 !
b1101000 Y
b1010011 "
b1010011 X
b10010010 W
b1111101 V
b1110101111001101 P
b1110101000101111 O
b11111111111101100111101011101000 E
b11111111111101011101001100100000 D
b100000 *
b111110 ,
b100110 )
b1110101111001101 (
b1110101111001101 .
b1110101000101111 '
b1110101000101111 -
r-2.52525253 +
1$
#210000
0$
#215000
b1110111100001000 P
b1110110101101011 O
b10111100 W
b10100111 V
b10010010 !
b10010010 Y
b1111101 "
b1111101 X
b11111111111101111100101101001000 E
b11111111111101110010001100011000 D
b101000 )
b1110111100001000 (
b1110111100001000 .
b1110110101101011 '
b1110110101101011 -
r-2.12121212 +
b100010 *
b1101000 ,
1$
#220000
0$
#225000
b10111100 !
b10111100 Y
b10100111 "
b10100111 X
b11100110 W
b11010001 V
b1101011001 G
b100110011 I
b1101011001 F
b100110011 H
b1111001001000100 P
b1111000010100110 O
b11111111111110010001101101000000 E
b11111111111110000111001101111000 D
b100100 *
b10010010 ,
b101010 )
b1111001001000100 (
b1111001001000100 .
b1111000010100110 '
b1111000010100110 -
r-1.71717172 +
1$
#230000
0$
#235000
b1111010101111111 P
b1111001111100001 O
b101001001 W
b100001011 V
b11100110 !
b11100110 Y
b11010001 "
b11010001 X
b11111111111011111000011110001100 E
b11111111111011011001011100010010 D
b101100 )
b1111010101111111 (
b1111010101111111 .
b1111001111100001 '
b1111001111100001 -
r-1.31313131 +
b100110 *
b10111100 ,
1$
#240000
0$
#245000
b101001001 !
b101001001 Y
b100001011 "
b100001011 X
b111000101 W
b110000111 V
b10000000000 G
b111011001 I
b1111100010111011 P
b1111011100011101 O
b11111111111100110110011101001101 E
b11111111111100010111011011010011 D
b101000 *
b11100110 ,
b101110 )
b1111100010111011 (
b1111100010111011 .
b1111011100011101 '
b1111011100011101 -
r-0.90909091 +
1$
#250000
0$
#255000
b10000000000 F
b111011001 H
b1111101111110110 P
b1111101001011000 O
b1001010010 W
b1000000011 V
b111000101 !
b111000101 Y
b110000111 "
b110000111 X
b11111111111100101001000110000011 E
b11111111111101010101011111000111 D
b110000 )
b1111101111110110 (
b1111101111110110 .
b1111101001011000 '
b1111101001011000 -
r-0.50505051 +
b101010 *
b101001001 ,
1$
#260000
0$
#265000
b1001010010 !
b1001010010 Y
b1000000011 "
b1000000011 X
b1100010001 W
b1010110001 V
b1111111100110010 P
b1111110110010100 O
b11111111111110001000100110000110 E
b11111111111101011000110010011000 D
b101100 *
b111000101 ,
b110010 )
b1111111100110010 (
b1111111100110010 .
b1111110110010100 '
b1111110110010100 -
r-0.1010101 +
1$
#270000
0$
#275000
b1001101100 P
b11001110 O
b1111010000 W
b1101110000 V
b1100010001 !
b1100010001 Y
b1010110001 "
b1010110001 X
b11111111111111101000001101100010 E
b11111111111110111000011001110100 D
b110100 )
b1001101100 (
b1001101100 .
b11001110 '
b11001110 -
r0.3030303 +
b101110 *
b1001010010 ,
1$
#280000
0$
#285000
b1111010000 !
b1111010000 Y
b1101110000 "
b1101110000 X
b10010001111 W
b10000101111 V
b10110101000 P
b10000001010 O
b1000111100110001100 E
b10111110010011110 D
b110000 *
b1100010001 ,
b110110 )
b10110101000 (
b10110101000 .
b10000001010 '
b10000001010 -
r0.70707071 +
1$
#290000
0$
#295000
b10010100111 G
b100110011 I
b100011100011 P
b11101000101 O
b10101001110 W
b10011101110 V
b10010001111 !
b10010001111 Y
b10000101111 "
b10000101111 X
b10100111001101101000 E
b1110111011001111010 D
b111000 )
b100011100011 (
b100011100011 .
b11101000101 '
b11101000101 -
r1.11111111 +
b110010 *
b1111010000 ,
1$
#300000
0$
#305000
b10101001110 !
b10101001110 Y
b10011101110 "
b10011101110 X
b10111111100 W
b10110101101 V
b10010100111 F
b100110011 H
b110000011111 P
b101010000001 O
b10101010100000111001 E
b11010110111001111101 D
b110100 *
b10010001111 ,
b111010 )
b110000011111 (
b110000011111 .
b101010000001 '
b101010000001 -
r1.51515152 +
1$
#310000
0$
#315000
b111101011010 P
b110110111100 O
b11001111000 W
b11000111010 V
b10111111100 !
b10111111100 Y
b10110101101 "
b10110101101 X
b11101000100100101101 E
b11001001100010110011 D
b111100 )
b111101011010 (
b111101011010 .
b110110111100 '
b110110111100 -
r1.91919192 +
b110110 *
b10101001110 ,
1$
#320000
0$
#325000
b11001111000 !
b11001111000 Y
b11000111010 "
b11000111010 X
b11011110100 W
b11010110110 V
b11000111101 G
b1101000 I
b11000111101 F
b1101000 H
b1001010010101 P
b1000011111000 O
b100100110100011101110 E
b100000111100001110100 D
b111000 *
b10111111100 ,
b111110 )
b1001010010101 (
b1001010010101 .
b1000011111000 '
b1000011111000 -
r2.32323232 +
1$
#330000
0$
#335000
b1010111010001 P
b1010000110011 O
b11100101110 W
b11100011001 V
b11011110100 !
b11011110100 Y
b11010110110 "
b11010110110 X
b1111000110010001000 E
b1101110010011000000 D
b1000000 )
b1010111010001 (
b1010111010001 .
b1010000110011 '
b1010000110011 -
r2.72727273 +
b111010 *
b11001111000 ,
1$
#340000
0$
#345000
b11100101110 !
b11100101110 Y
b11100011001 "
b11100011001 X
b11101011000 W
b11101000011 V
b1100100001100 P
b1011101101111 O
b10001101110011101000 E
b10000011010010111000 D
b111100 *
b11011110100 ,
b1000010 )
b1100100001100 (
b1100100001100 .
b1011101101111 '
b1011101101111 -
r3.13131313 +
1$
#350000
0$
#355000
b1110001001000 P
b1101010101010 O
b11110000010 W
b11101101101 V
b11101011000 !
b11101011000 Y
b11101000011 "
b11101000011 X
b10100010110011100000 E
b10011000010100011000 D
b1000100 )
b1110001001000 (
b1110001001000 .
b1101010101010 '
b1101010101010 -
r3.53535354 +
b111110 *
b11100101110 ,
1$
#360000
0$
#365000
b11110000010 !
b11110000010 Y
b11101101101 "
b11101101101 X
b11110101100 W
b11110010111 V
b1111110000011 P
b1110111100110 O
b10110111110101000000 E
b10101101010100010000 D
b1000000 *
b11101011000 ,
b1000110 )
b1111110000011 (
b1111110000011 .
b1110111100110 '
b1110111100110 -
r3.93939394 +
1$
#370000
0$
#375000
b11110011100 G
b10000 I
b11110011100 F
b10000 H
b10001010111111 P
b10000100100001 O
b11111010110 W
b11111000001 V
b11110101100 !
b11110101100 Y
b11110010111 "
b11110010111 X
b11001100110100111000 E
b11000010010101110000 D
b1001000 )
b10001010111111 (
b10001010111111 .
b10000100100001 '
b10000100100001 -
r4.34343434 +
b1000010 *
b11110000010 ,
1$
#380000
0$
#385000
b11111010110 !
b11111010110 Y
b11111000001 "
b11111000001 X
b11111100001 W
b11111011110 V
b10010111111010 P
b10010001011101 O
b100010101111110000 E
b100001001000010000 D
b1000100 *
b11110101100 ,
b1001010 )
b10010111111010 (
b10010111111010 .
b10010001011101 '
b10010001011101 -
r4.74747475 +
1$
#390000
0$
#395000
b10100100110110 P
b10011110011000 O
b11111100111 W
b11111100100 V
b11111100001 !
b11111100001 Y
b11111011110 "
b11111011110 X
b100101111110100000 E
b100100010111010000 D
b1001100 )
b10100100110110 (
b10100100110110 .
b10011110011000 '
b10011110011000 -
r5.15151515 +
b1000110 *
b11111010110 ,
1$
#400000
0$
#405000
b11111100111 !
b11111100111 Y
b11111100100 "
b11111100100 X
b11111101110 W
b11111101011 V
b10110001110001 P
b10101011010100 O
b101001001101100000 E
b100111100110000000 D
b1001000 *
b11111100001 ,
b1001110 )
b10110001110001 (
b10110001110001 .
b10101011010100 '
b10101011010100 -
r5.55555556 +
1$
#410000
0$
#415000
b10111110101101 P
b10111000001111 O
b11111110100 W
b11111110001 V
b11111101110 !
b11111101110 Y
b11111101011 "
b11111101011 X
b101100011100010000 E
b101010110101000000 D
b1010000 )
b10111110101101 (
b10111110101101 .
b10111000001111 '
b10111000001111 -
r5.95959596 +
b1001010 *
b11111100111 ,
1$
#420000
0$
#425000
b11111110100 !
b11111110100 Y
b11111110001 "
b11111110001 X
b11111111011 W
b11111111000 V
b0 G
b0 I
1K
b0 F
b0 H
1J
b11001011101000 P
b11000101001010 O
b101111101011010000 E
b101110000011110000 D
b1001100 *
b11111101110 ,
b1010010 )
b11001011101000 (
b11001011101000 .
b11000101001010 '
b11000101001010 -
r6.36363636 +
1$
#430000
0$
#435000
b11011000100100 P
b11010010000110 O
b0 W
b0 V
1R
1Q
b11111111011 !
b11111111011 Y
b11111111000 "
b11111111000 X
b0 E
b0 D
b1010100 )
b11011000100100 (
b11011000100100 .
b11010010000110 '
b11010010000110 -
r6.76767677 +
b1001110 *
b11111110100 ,
1$
#440000
0$
#445000
b11111111011 "
b11111111011 X
b11100101011111 P
b11011111000001 O
b1010000 *
b11111111011 ,
b1010110 )
b11100101011111 (
b11100101011111 .
b11011111000001 '
b11011111000001 -
r7.17171717 +
1$
#450000
0$
#455000
b11110010011011 P
b11101011111101 O
b1011000 )
b11110010011011 (
b11110010011011 .
b11101011111101 '
b11101011111101 -
r7.57575758 +
b1010010 *
1$
#460000
0$
#465000
b11111111010110 P
b11111000111000 O
b1010100 *
b1011010 )
b11111111010110 (
b11111111010110 .
b11111000111000 '
b11111000111000 -
r7.97979798 +
1$
#470000
0$
#475000
b100001100010010 P
b100000101110100 O
b1011100 )
b100001100010010 (
b100001100010010 .
b100000101110100 '
b100000101110100 -
r8.38383838 +
b1010110 *
1$
#480000
0$
#485000
b100011001001101 P
b100010010101111 O
b1011000 *
b1011110 )
b100011001001101 (
b100011001001101 .
b100010010101111 '
b100010010101111 -
r8.787878790000001 +
1$
#490000
0$
#495000
b100100110001001 P
b100011111101011 O
b1100000 )
b100100110001001 (
b100100110001001 .
b100011111101011 '
b100011111101011 -
r9.19191919 +
b1011010 *
1$
#500000
0$
#505000
b100110011000100 P
b100101100100110 O
b1011100 *
b1100010 )
b100110011000100 (
b100110011000100 .
b100101100100110 '
b100101100100110 -
r9.5959596 +
1$
#510000
0$
#515000
b101000000000000 P
b100111001100010 O
b1100100 )
b101000000000000 (
b101000000000000 .
b100111001100010 '
b100111001100010 -
r10 +
b1011110 *
1$
#520000
0$
#525000
0N
b1100000 *
0&
1$
#530000
0$
#535000
0U
b1100010 *
1$
#540000
0$
#545000
0#
b1100100 *
1$
