7-slices/tanh7slices_tb.vcd
$date
	Fri Dec 05 08:18:19 2025
$end
$version
	Icarus Verilog
$end
$timescale
	1ps
$end
$scope module tanh7slices_tb $end
$var wire 16 ! y1_out [15:0] $end
$var wire 16 " y0_out [15:0] $end
$var wire 1 # valid_out $end
$var reg 1 $ clk $end
$var reg 1 % rst_n $end
$var reg 1 & valid_in $end
$var reg 16 ' x0_in [15:0] $end
$var reg 16 ( x1_in [15:0] $end
$var integer 32 ) i [31:0] $end
$var integer 32 * out_cnt [31:0] $end
$scope function to_fixed $end
$var real 1 + val $end
$upscope $end
$scope function to_real $end
$var reg 16 , val [15:0] $end
$upscope $end
$scope module uut $end
$var wire 1 $ clk $end
$var wire 1 % rst_n $end
$var wire 1 & valid_in $end
$var wire 16 - x0_in [15:0] $end
$var wire 16 . x1_in [15:0] $end
$var parameter 16 / BP_N0_5 $end
$var parameter 16 0 BP_N1 $end
$var parameter 16 1 BP_N2 $end
$var parameter 16 2 BP_N3 $end
$var parameter 16 3 BP_P0_5 $end
$var parameter 16 4 BP_P1 $end
$var parameter 16 5 BP_P2 $end
$var parameter 16 6 BP_P3 $end
$var parameter 16 7 C_SEG1 $end
$var parameter 16 8 C_SEG2 $end
$var parameter 16 9 C_SEG3 $end
$var parameter 16 : C_SEG4 $end
$var parameter 16 ; C_SEG5 $end
$var parameter 16 < C_SEG6 $end
$var parameter 16 = C_SEG7 $end
$var parameter 16 > M_CENTER $end
$var parameter 16 ? M_MID $end
$var parameter 16 @ M_OUTER $end
$var parameter 16 A M_TAIL $end
$var parameter 16 B SAT_HIGH $end
$var parameter 16 C SAT_LOW $end
$var reg 32 D mult_res0 [31:0] $end
$var reg 32 E mult_res1 [31:0] $end
$var reg 16 F s1_c0 [15:0] $end
$var reg 16 G s1_c1 [15:0] $end
$var reg 16 H s1_m0 [15:0] $end
$var reg 16 I s1_m1 [15:0] $end
$var reg 1 J s1_sat_high0 $end
$var reg 1 K s1_sat_high1 $end
$var reg 1 L s1_sat_low0 $end
$var reg 1 M s1_sat_low1 $end
$var reg 1 N s1_valid $end
$var reg 16 O s1_x0 [15:0] $end
$var reg 16 P s1_x1 [15:0] $end
$var reg 1 Q s2_sat_high0 $end
$var reg 1 R s2_sat_high1 $end
$var reg 1 S s2_sat_low0 $end
$var reg 1 T s2_sat_low1 $end
$var reg 1 U s2_valid $end
$var reg 16 V s2_y0 [15:0] $end
$var reg 16 W s2_y1 [15:0] $end
$var reg 1 # valid_out $end
$var reg 16 X y0_out [15:0] $end
$var reg 16 Y y1_out [15:0] $end
$upscope $end
$upscope $end
$enddefinitions $end
$comment Show the parameter values. $end
$dumpall
b1111100000001010 C
b11111110110 B
b1000000 A
b110011111 @
b10011001011 ?
b11101100101 >
b11100110111 =
b10001111001 <
b101001101 ;
b0 :
b1111111010110011 9
b1111101110000111 8
b1111100011001001 7
b1100000000000 6
b1000000000000 5
b100000000000 4
b10000000000 3
b1110100000000000 2
b1111000000000000 1
b1111100000000000 0
b1111110000000000 /
$end
#0
$dumpvars
b0 Y
b0 X
b0 W
b0 V
0U
0T
0S
0R
0Q
b0 P
b0 O
0N
0M
0L
0K
0J
b0 I
b0 H
b0 G
b0 F
bx E
bx D
b0 .
b0 -
bx ,
r0 +
b0 *
bx )
b0 (
b0 '
0&
0%
0$
0#
b0 "
b0 !
$end
#5000
1$
#10000
0$
#15000
1$
#20000
0$
b0 )
1%
#25000
1M
1L
b1101100011001111 P
b1101100000000000 O
1N
b0 E
b0 D
b10 )
b1101100011001111 (
b1101100011001111 .
b1101100000000000 '
b1101100000000000 -
r-4.8989899 +
1&
1$
#30000
0$
#35000
b1101101001101101 P
b1101100110011110 O
1T
1S
1U
b100 )
b1101101001101101 (
b1101101001101101 .
b1101100110011110 '
b1101100110011110 -
r-4.6969697 +
1$
#40000
0$
#45000
b1111100000001010 !
b1111100000001010 Y
b1111100000001010 "
b1111100000001010 X
1#
b1101110000001011 P
b1101101100111100 O
b110 )
b1101110000001011 (
b1101110000001011 .
b1101101100111100 '
b1101101100111100 -
r-4.49494949 +
1$
#50000
0$
#55000
b1101110110101001 P
b1101110011011010 O
b1000 )
b1101110110101001 (
b1101110110101001 .
b1101110011011010 '
b1101110011011010 -
r-4.29292929 +
b10 *
b1111100000001010 ,
1$
#60000
0$
#65000
b1101111101000110 P
b1101111001110111 O
b100 *
b1010 )
b1101111101000110 (
b1101111101000110 .
b1101111001110111 '
b1101111001110111 -
r-4.09090909 +
1$
#70000
0$
#75000
b1110000011100100 P
b1110000000010101 O
b1100 )
b1110000011100100 (
b1110000011100100 .
b1110000000010101 '
b1110000000010101 -
r-3.88888889 +
b110 *
1$
#80000
0$
#85000
b1110001010000010 P
b1110000110110011 O
b1000 *
b1110 )
b1110001010000010 (
b1110001010000010 .
b1110000110110011 '
b1110000110110011 -
r-3.68686869 +
1$
#90000
0$
#95000
b1110010000100000 P
b1110001101010001 O
b10000 )
b1110010000100000 (
b1110010000100000 .
b1110001101010001 '
b1110001101010001 -
r-3.48484848 +
b1010 *
1$
#100000
0$
#105000
b1110010110111101 P
b1110010011101110 O
b1100 *
b10010 )
b1110010110111101 (
b1110010110111101 .
b1110010011101110 '
b1110010011101110 -
r-3.28282828 +
1$
#110000
0$
#115000
b1110011101011011 P
b1110011010001100 O
b10100 )
b1110011101011011 (
b1110011101011011 .
b1110011010001100 '
b1110011010001100 -
r-3.08080808 +
b1110 *
1$
#120000
0$
#125000
b1111100011001001 G
b1000000 I
0M
b1111100011001001 F
b1000000 H
0L
b1110100011111001 P
b1110100000101010 O
b10000 *
b10110 )
b1110100011111001 (
b1110100011111001 .
b1110100000101010 '
b1110100000101010 -
r-2.87878788 +
1$
#130000
0$
#135000
b1110101010010110 P
b1110100111001000 O
b1111100000010000 W
b1111100000001010 V
0T
0S
b11111111111110100011111001000000 E
b11111111111110100000101010000000 D
b11000 )
b1110101010010110 (
b1110101010010110 .
b1110100111001000 '
b1110100111001000 -
r-2.67676768 +
b10010 *
1$
#140000
0$
#145000
b1111100000010000 !
b1111100000010000 Y
b1111100000011101 W
b1111100000010111 V
b1110110000110100 P
b1110101101100101 O
b11111111111110101010010110000000 E
b11111111111110100111001000000000 D
b10100 *
b11010 )
b1110110000110100 (
b1110110000110100 .
b1110101101100101 '
b1110101101100101 -
r-2.47474747 +
1$
#150000
0$
#155000
b1110110111010010 P
b1110110100000011 O
b1111100000101010 W
b1111100000100100 V
b1111100000011101 !
b1111100000011101 Y
b1111100000010111 "
b1111100000010111 X
b11111111111110110000110100000000 E
b11111111111110101101100101000000 D
b11100 )
b1110110111010010 (
b1110110111010010 .
b1110110100000011 '
b1110110100000011 -
r-2.27272727 +
b10110 *
b1111100000010000 ,
1$
#160000
0$
#165000
b1111100000101010 !
b1111100000101010 Y
b1111100000100100 "
b1111100000100100 X
b1111100000110111 W
b1111100000110001 V
b1110111101110000 P
b1110111010100001 O
b11111111111110110111010010000000 E
b11111111111110110100000011000000 D
b11000 *
b1111100000011101 ,
b11110 )
b1110111101110000 (
b1110111101110000 .
b1110111010100001 '
b1110111010100001 -
r-2.07070707 +
1$
#170000
0$
#175000
b1111101110000111 G
b110011111 I
b1111101110000111 F
b110011111 H
b1111000100001101 P
b1111000000111111 O
b1111100001000100 W
b1111100000111110 V
b1111100000110111 !
b1111100000110111 Y
b1111100000110001 "
b1111100000110001 X
b11111111111110111101110000000000 E
b11111111111110111010100001000000 D
b100000 )
b1111000100001101 (
b1111000100001101 .
b1111000000111111 '
b1111000000111111 -
r-1.86868687 +
b11010 *
b1111100000101010 ,
1$
#180000
0$
#185000
b1111100001000100 !
b1111100001000100 Y
b1111100000111110 "
b1111100000111110 X
b1111100001111111 W
b1111100001010101 V
b1111001010101011 P
b1111000111011100 O
b11111111111001111100010000010011 E
b11111111111001100111011000100001 D
b11100 *
b1111100000110111 ,
b100010 )
b1111001010101011 (
b1111001010101011 .
b1111000111011100 '
b1111000111011100 -
r-1.66666667 +
1$
#190000
0$
#195000
b1111010001001001 P
b1111001101111010 O
b1111100011010011 W
b1111100010101001 V
b1111100001111111 !
b1111100001111111 Y
b1111100001010101 "
b1111100001010101 X
b11111111111010100110001100110101 E
b11111111111010010001001110100100 D
b100100 )
b1111010001001001 (
b1111010001001001 .
b1111001101111010 '
b1111001101111010 -
r-1.46464646 +
b11110 *
b1111100001000100 ,
1$
#200000
0$
#205000
b1111100011010011 !
b1111100011010011 Y
b1111100010101001 "
b1111100010101001 X
b1111100100100111 W
b1111100011111101 V
b1111010111100111 P
b1111010100011000 O
b11111111111011010000001001010111 E
b11111111111010111011001011000110 D
b100000 *
b1111100001111111 ,
b100110 )
b1111010111100111 (
b1111010111100111 .
b1111010100011000 '
b1111010100011000 -
r-1.26262626 +
1$
#210000
0$
#215000
b1111011110000100 P
b1111011010110110 O
b1111100101111011 W
b1111100101010001 V
b1111100100100111 !
b1111100100100111 Y
b1111100011111101 "
b1111100011111101 X
b11111111111011111010000101111001 E
b11111111111011100101000111101000 D
b101000 )
b1111011110000100 (
b1111011110000100 .
b1111011010110110 '
b1111011010110110 -
r-1.06060606 +
b100010 *
b1111100011010011 ,
1$
#220000
0$
#225000
b1111100101111011 !
b1111100101111011 Y
b1111100101010001 "
b1111100101010001 X
b1111100111001110 W
b1111100110100101 V
b1111111010110011 G
b10011001011 I
b1111111010110011 F
b10011001011 H
b1111100100100010 P
b1111100001010011 O
b11111111111100100011111011111100 E
b11111111111100001111000100001010 D
b100100 *
b1111100100100111 ,
b101010 )
b1111100100100010 (
b1111100100100010 .
b1111100001010011 '
b1111100001010011 -
r-0.85858586 +
1$
#230000
0$
#235000
b1111101011000000 P
b1111100111110001 O
b1111101010010101 W
b1111101000011001 V
b1111100111001110 !
b1111100111001110 Y
b1111100110100101 "
b1111100110100101 X
b11111111110111110001010111110110 E
b11111111110110110011010111010001 D
b101100 )
b1111101011000000 (
b1111101011000000 .
b1111100111110001 '
b1111100111110001 -
r-0.6565656600000001 +
b100110 *
b1111100101111011 ,
1$
#240000
0$
#245000
b1111101010010101 !
b1111101010010101 Y
b1111101000011001 "
b1111101000011001 X
b1111101110001101 W
b1111101100010001 V
b0 G
b11101100101 I
b1111110001011110 P
b1111101110001111 O
b11111111111001101101011001000000 E
b11111111111000101111011000011011 D
b101000 *
b1111100111001110 ,
b101110 )
b1111110001011110 (
b1111110001011110 .
b1111101110001111 '
b1111101110001111 -
r-0.45454545 +
1$
#250000
0$
#255000
b0 F
b11101100101 H
b1111110111111011 P
b1111110100101100 O
b1111110010100100 W
b1111110000001001 V
b1111101110001101 !
b1111101110001101 Y
b1111101100010001 "
b1111101100010001 X
b11111111111001010010001100010110 E
b11111111111010101011011001100101 D
b110000 )
b1111110111111011 (
b1111110111111011 .
b1111110100101100 '
b1111110100101100 -
r-0.25252525 +
b101010 *
b1111101010010101 ,
1$
#260000
0$
#265000
b1111110010100100 !
b1111110010100100 Y
b1111110000001001 "
b1111110000001001 X
b1111111000100010 W
b1111110101100010 V
b1111111110011001 P
b1111111011001010 O
b11111111111100010001000100000111 E
b11111111111010110001011001011100 D
b101100 *
b1111101110001101 ,
b110010 )
b1111111110011001 (
b1111111110011001 .
b1111111011001010 '
b1111111011001010 -
r-0.05050505 +
1$
#270000
0$
#275000
b100110110 P
b1100111 O
b1111111110100000 W
b1111111011100001 V
b1111111000100010 !
b1111111000100010 Y
b1111110101100010 "
b1111110101100010 X
b11111111111111010000011001011101 E
b11111111111101110000101110110010 D
b110100 )
b100110110 (
b100110110 .
b1100111 '
b1100111 -
r0.15151515 +
b101110 *
b1111110010100100 ,
1$
#280000
0$
#285000
b1111111110100000 !
b1111111110100000 Y
b1111111011100001 "
b1111111011100001 X
b100011110 W
b1011111 V
b1011010100 P
b1000000101 O
b10001111010001001110 E
b101111100110100011 D
b110000 *
b1111111000100010 ,
b110110 )
b1011010100 (
b1011010100 .
b1000000101 '
b1000000101 -
r0.35353535 +
1$
#290000
0$
#295000
b101001101 G
b10011001011 I
b10001110001 P
b1110100010 O
b1010011101 W
b111011101 V
b100011110 !
b100011110 Y
b1011111 "
b1011111 X
b101001110100110100100 E
b11101110111011111001 D
b111000 )
b10001110001 (
b10001110001 .
b1110100010 '
b1110100010 -
r0.5555555599999999 +
b110010 *
b1111111110100000 ,
1$
#300000
0$
#305000
b1010011101 !
b1010011101 Y
b111011101 "
b111011101 X
b1111110110 W
b1101011011 V
b101001101 F
b10011001011 H
b11000001111 P
b10101000000 O
b101010100100110011011 E
b110101101110011101010 D
b110100 *
b100011110 ,
b111010 )
b11000001111 (
b11000001111 .
b10101000000 '
b10101000000 -
r0.75757576 +
1$
#310000
0$
#315000
b11110101101 P
b11011011110 O
b10011101110 W
b10001110010 V
b1111110110 !
b1111110110 Y
b1101011011 "
b1101011011 X
b111010000100111100101 E
b110010010100111000000 D
b111100 )
b11110101101 (
b11110101101 .
b11011011110 '
b11011011110 -
r0.95959596 +
b110110 *
b1010011101 ,
1$
#320000
0$
#325000
b10011101110 !
b10011101110 Y
b10001110010 "
b10001110010 X
b10111100110 W
b10101101010 V
b10001111001 G
b110011111 I
b10001111001 F
b110011111 H
b100101001010 P
b100001111100 O
b1001001100101000101111 E
b1000001110101000001010 D
b111000 *
b1111110110 ,
b111110 )
b100101001010 (
b100101001010 .
b100001111100 '
b100001111100 -
r1.16161616 +
1$
#330000
0$
#335000
b101011101000 P
b101000011001 O
b11001011010 W
b11000110001 V
b10111100110 !
b10111100110 Y
b10101101010 "
b10101101010 X
b11110000111011110110 E
b11011100000100000100 D
b1000000 )
b101011101000 (
b101011101000 .
b101000011001 '
b101000011001 -
r1.36363636 +
b111010 *
b10011101110 ,
1$
#340000
0$
#345000
b11001011010 !
b11001011010 Y
b11000110001 "
b11000110001 X
b11010101110 W
b11010000100 V
b110010000110 P
b101110110111 O
b100011010111000011000 E
b100000101111010000111 D
b111100 *
b10111100110 ,
b1000010 )
b110010000110 (
b110010000110 .
b101110110111 '
b101110110111 -
r1.56565657 +
1$
#350000
0$
#355000
b111000100100 P
b110101010101 O
b11100000010 W
b11011011000 V
b11010101110 !
b11010101110 Y
b11010000100 "
b11010000100 X
b101000100110100111010 E
b100101111110110101001 D
b1000100 )
b111000100100 (
b111000100100 .
b110101010101 '
b110101010101 -
r1.76767677 +
b111110 *
b11001011010 ,
1$
#360000
0$
#365000
b11100000010 !
b11100000010 Y
b11011011000 "
b11011011000 X
b11101010110 W
b11100101100 V
b111111000001 P
b111011110011 O
b101101110110001011100 E
b101011001110011001011 D
b1000000 *
b11010101110 ,
b1000110 )
b111111000001 (
b111111000001 .
b111011110011 '
b111011110011 -
r1.96969697 +
1$
#370000
0$
#375000
b11100110111 G
b1000000 I
b11100110111 F
b1000000 H
b1000101011111 P
b1000010010000 O
b11110101010 W
b11110000000 V
b11101010110 !
b11101010110 Y
b11100101100 "
b11100101100 X
b110011000100111011111 E
b110000011101111101101 D
b1001000 )
b1000101011111 (
b1000101011111 .
b1000010010000 '
b1000010010000 -
r2.17171717 +
b1000010 *
b11100000010 ,
1$
#380000
0$
#385000
b11110101010 !
b11110101010 Y
b11110000000 "
b11110000000 X
b11111000001 W
b11110111011 V
b1001011111101 P
b1001000101110 O
b1000101011111000000 E
b1000010010000000000 D
b1000100 *
b11101010110 ,
b1001010 )
b1001011111101 (
b1001011111101 .
b1001000101110 '
b1001000101110 -
r2.37373737 +
1$
#390000
0$
#395000
b1010010011011 P
b1001111001100 O
b11111001110 W
b11111001000 V
b11111000001 !
b11111000001 Y
b11110111011 "
b11110111011 X
b1001011111101000000 E
b1001000101110000000 D
b1001100 )
b1010010011011 (
b1010010011011 .
b1001111001100 '
b1001111001100 -
r2.57575758 +
b1000110 *
b11110101010 ,
1$
#400000
0$
#405000
b11111001110 !
b11111001110 Y
b11111001000 "
b11111001000 X
b11111011011 W
b11111010101 V
b1011000111000 P
b1010101101010 O
b1010010011011000000 E
b1001111001100000000 D
b1001000 *
b11111000001 ,
b1001110 )
b1011000111000 (
b1011000111000 .
b1010101101010 '
b1010101101010 -
r2.77777778 +
1$
#410000
0$
#415000
b1011111010110 P
b1011100000111 O
b11111101000 W
b11111100010 V
b11111011011 !
b11111011011 Y
b11111010101 "
b11111010101 X
b1011000111000000000 E
b1010101101010000000 D
b1010000 )
b1011111010110 (
b1011111010110 .
b1011100000111 '
b1011100000111 -
r2.97979798 +
b1001010 *
b11111001110 ,
1$
#420000
0$
#425000
b11111101000 !
b11111101000 Y
b11111100010 "
b11111100010 X
b11111110101 W
b11111101111 V
b0 G
b0 I
1K
b0 F
b0 H
1J
b1100101110100 P
b1100010100101 O
b1011111010110000000 E
b1011100000111000000 D
b1001100 *
b11111011011 ,
b1010010 )
b1100101110100 (
b1100101110100 .
b1100010100101 '
b1100010100101 -
r3.18181818 +
1$
#430000
0$
#435000
b1101100010010 P
b1101001000011 O
b0 W
b0 V
1R
1Q
b11111110101 !
b11111110101 Y
b11111101111 "
b11111101111 X
b0 E
b0 D
b1010100 )
b1101100010010 (
b1101100010010 .
b1101001000011 '
b1101001000011 -
r3.38383838 +
b1001110 *
b11111101000 ,
1$
#440000
0$
#445000
b11111110110 !
b11111110110 Y
b11111110110 "
b11111110110 X
b1110010101111 P
b1101111100000 O
b1010000 *
b11111110101 ,
b1010110 )
b1110010101111 (
b1110010101111 .
b1101111100000 '
b1101111100000 -
r3.58585859 +
1$
#450000
0$
#455000
b1111001001101 P
b1110101111110 O
b1011000 )
b1111001001101 (
b1111001001101 .
b1110101111110 '
b1110101111110 -
r3.78787879 +
b1010010 *
b11111110110 ,
1$
#460000
0$
#465000
b1111111101011 P
b1111100011100 O
b1010100 *
b1011010 )
b1111111101011 (
b1111111101011 .
b1111100011100 '
b1111100011100 -
r3.98989899 +
1$
#470000
0$
#475000
b10000110001001 P
b10000010111010 O
b1011100 )
b10000110001001 (
b10000110001001 .
b10000010111010 '
b10000010111010 -
r4.19191919 +
b1010110 *
1$
#480000
0$
#485000
b10001100100110 P
b10001001010111 O
b1011000 *
b1011110 )
b10001100100110 (
b10001100100110 .
b10001001010111 '
b10001001010111 -
r4.39393939 +
1$
#490000
0$
#495000
b10010011000100 P
b10001111110101 O
b1100000 )
b10010011000100 (
b10010011000100 .
b10001111110101 '
b10001111110101 -
r4.5959596 +
b1011010 *
1$
#500000
0$
#505000
b10011001100010 P
b10010110010011 O
b1011100 *
b1100010 )
b10011001100010 (
b10011001100010 .
b10010110010011 '
b10010110010011 -
r4.7979798 +
1$
#510000
0$
#515000
b10100000000000 P
b10011100110001 O
b1100100 )
b10100000000000 (
b10100000000000 .
b10011100110001 '
b10011100110001 -
r5 +
b1011110 *
1$
#520000
0$
#525000
0N
b1100000 *
0&
1$
#530000
0$
#535000
0U
b1100010 *
1$
#540000
0$
#545000
0#
b1100100 *
1$
